…
    ## [1] "v"  "vw" "o"  "c"  "h"  "l"  "t"  "n"

``` r
#Save as R object
parsed_api_data_results <- parsed_api_data$results

#Select source, author and title and print tibble
parsed_tibble <- as_tibble(parsed_api_data_results)
parsed_tibble
```

    ## # A tibble: 253 x 8
    ##          v    vw     o     c     h     l           t     n
    ##      <dbl> <dbl> <dbl> <dbl> <dbl> <dbl>       <dbl> <int>
    ##  1 325532.  74.3  74.6  72.8  76.5  72.5     1.62e12  6167
    ##  2 480233.  69.7  71.3  71.1  71.3  68.2     1.62e12  8449
    ##  3 412088.  69.8  71    69    72.0  68.6     1.62e12  7110
    ##  4 396969   67.8  68.2  67.2  69.0  66.9     1.62e12  6069
    ##  5 505422   72.2  67.6  73.3  74.0  67.6     1.62e12  8743
    ##  6 318393.  71.6  71.5  73.9  74.2  70       1.62e12  6276
    ##  7 315401.  71.6  72.4  71    73.1  70.7     1.63e12  5883
    ##  8 483347.  67.7  66.8  67.7  69.4  66.1     1.63e12  9012
    ##  9 312484.  69.6  68.2  70.4  70.6  67.9     1.63e12  5961
    ## 10 428755.  74.5  70.3  76    77.0  70.3     1.63e12  8575
    ## # ... with 243 more rows
…
    ## [1] "v"  "vw" "o"  "c"  "h"  "l"  "t"  "n"

``` r
#Save as R object
parsed_api_dataTEST_results <- parsed_api_dataTEST$results

#Select source, author and title and print tibble
parsed_tibbleTEST <- as_tibble(parsed_api_dataTEST_results)
parsed_tibbleTEST
```

    ## # A tibble: 253 x 8
    ##          v    vw     o     c     h     l           t     n
    ##      <dbl> <dbl> <dbl> <dbl> <dbl> <dbl>       <dbl> <int>
    ##  1 325532.  74.3  74.6  72.8  76.5  72.5     1.62e12  6167
    ##  2 480233.  69.7  71.3  71.1  71.3  68.2     1.62e12  8449
    ##  3 412088.  69.8  71    69    72.0  68.6     1.62e12  7110
    ##  4 396969   67.8  68.2  67.2  69.0  66.9     1.62e12  6069
    ##  5 505422   72.2  67.6  73.3  74.0  67.6     1.62e12  8743
    ##  6 318393.  71.6  71.5  73.9  74.2  70       1.62e12  6276
    ##  7 315401.  71.6  72.4  71    73.1  70.7     1.63e12  5883
    ##  8 483347.  67.7  66.8  67.7  69.4  66.1     1.63e12  9012
    ##  9 312484.  69.6  68.2  70.4  70.6  67.9     1.63e12  5961
    ## 10 428755.  74.5  70.3  76    77.0  70.3     1.63e12  8575
    ## # ... with 243 more rows
…
